…
``` r
# extract subjectIDs from the files names and add them as a factor column of `df`
matches           <- regexpr ('sub-s[0-9]{3}', datafiles, perl = T)
subjectIDs        <- regmatches(datafiles, matches)
lengths           <- lapply(lapply(datafiles, read.csv), nrow)
df.behav$subjects <- factor(rep(subjectIDs, each = unique(lengths)))
```

``` r
(df.behav %>%
  group_by(subjects) %>%
  summarize(emo_source_memory_performance = mean(EmoAccuracy)) -> df.behav)
```

    ## # A tibble: 30 x 2
    ##    subjects emo_source_memory_performance
    ##      <fctr>                         <dbl>
    ##  1 sub-s002                     0.8229167
    ##  2 sub-s003                     0.8526786
    ##  3 sub-s004                     0.8348214
    ##  4 sub-s005                     0.7812500
    ##  5 sub-s006                     0.7656250
    ##  6 sub-s007                     0.7656250
    ##  7 sub-s008                     0.8072917
    ##  8 sub-s009                     0.8177083
    ##  9 sub-s010                     0.8385417
    ## 10 sub-s011                     0.7760417
    ## # ... with 20 more rows
…
